Clustering CDC Data - Nutrition, Physical Activity, & Obesity using Unsupervised and Supervised Learning
…
In our ### Data_Value_Unit vs Data_Value_Type vs DataValueTypeID

Since Data_Value_Unit is all NA. And Data_Value_Type and DataValueTypeID are all VALUE. We can remove them.

df$Data_Value_Unit <- NULL
df$Data_Value_Type <- NULL
df$DataValueTypeID <- NULL

Data_Value vs Data_Value_Alt

Based on first glance, there 2 columns should be identical. Lets use group by to confirm.

df %>% group_by(Data_Value,Data_Value_Alt)

## # A tibble: 53,392 x 24
## # Groups:   Data_Value, Data_Value_Alt [670]
##    YearStart LocationAbbr LocationDesc Class Data_Value Data_Value_Alt
##        <dbl> <fct>        <fct>        <fct>      <dbl>          <dbl>
##  1      2011 AL           Alabama      Obes       32             32  
##  2      2011 AL           Alabama      Obes       32.3           32.3
##  3      2011 AL           Alabama      Obes       31.8           31.8
##  4      2011 AL           Alabama      Obes       33.6           33.6
##  5      2011 AL           Alabama      Obes       32.8           32.8
##  6      2011 AL           Alabama      Obes       33.8           33.8
##  7      2011 AL           Alabama      Obes       26.4           26.4
##  8      2011 AL           Alabama      Obes       16.3           16.3
##  9      2011 AL           Alabama      Obes       35.2           35.2
## 10      2011 AL           Alabama      Obes       35.5           35.5
## #  with 53,382 more rows, and 18 more variables:
## #   Data_Value_Footnote_Symbol <fct>, Data_Value_Footnote <fct>,
## #   Low_Confidence_Limit <dbl>, High_Confidence_Limit <dbl>,
## #   Sample_Size <dbl>, Total <fct>, `Age(years)` <chr>, Education <fct>,
## #   Gender <fct>, Income <fct>, `Race/Ethnicity` <chr>, GeoLocation <chr>,
## #   QuestionID <fct>, LocationID <fct>, StratificationCategory1 <fct>,
## #   Stratification1 <fct>, StratificationCategoryId1 <fct>,
## #   StratificationID1 <fct>
…
StratificationCategoryId1 vs StratificationCategoryId1

StratificationCategoryId1 vs StratificationCategoryId1 are the transform value for StratificationCategory1 vs StratificationCategory1. So that, we can remove them.

df$StratificationCategoryId1 <- NULL
df$StratificationID1 <- NULL

LocationID vs LocationDesc vs LocationAbbr vs GeoLocation

Based on columns name, they should represent the same thing. Lets group by them and see whether we can remove the redundant columns or not.

df %>% group_by(LocationID, LocationAbbr, GeoLocation, LocationDesc) %>% summarise()

## # A tibble: 55 x 4
## # Groups:   LocationID, LocationAbbr, GeoLocation [55]
##    LocationID LocationAbbr GeoLocation                    LocationDesc     
##    <fct>      <fct>        <chr>                          <fct>            
##  1 01         AL           (32.84057112200048, -86.63186 Alabama          
##  2 02         AK           (64.84507995700051, -147.7220 Alaska           
##  3 04         AZ           (34.865970280000454, -111.763 Arizona          
##  4 05         AR           (34.74865012400045, -92.27449 Arkansas         
##  5 06         CA           (37.63864012300047, -120.9999 California       
##  6 08         CO           (38.843840757000464, -106.133 Colorado         
##  7 09         CT           (41.56266102000046, -72.64984 Connecticut      
##  8 10         DE           (39.008830667000495, -75.5777 Delaware         
##  9 11         DC           (38.89037138500049, -77.03196 District of Colu
## 10 12         FL           (28.932040377000476, -81.9289 Florida          
## #  with 45 more rows
…
